\relax 
\providecommand\hyper@newdestlabel[2]{}
\providecommand*\new@tpo@label[2]{}
\abx@aux@refcontext{ynt/global//global/global}
\@nameuse{bbl@beforestart}
\providecommand\HyperFirstAtBeginDocument{\AtBeginDocument}
\HyperFirstAtBeginDocument{\ifx\hyper@anchor\@undefined
\global\let\oldcontentsline\contentsline
\gdef\contentsline#1#2#3#4{\oldcontentsline{#1}{#2}{#3}}
\global\let\oldnewlabel\newlabel
\gdef\newlabel#1#2{\newlabelxx{#1}#2}
\gdef\newlabelxx#1#2#3#4#5#6{\oldnewlabel{#1}{{#2}{#3}}}
\AtEndDocument{\ifx\hyper@anchor\@undefined
\let\contentsline\oldcontentsline
\let\newlabel\oldnewlabel
\fi}
\fi}
\global\let\hyper@last\relax 
\gdef\HyperFirstAtBeginDocument#1{#1}
\providecommand\HyField@AuxAddToFields[1]{}
\providecommand\HyField@AuxAddToCoFields[2]{}
\providecommand\BKM@entry[2]{}
\@writefile{toc}{\boolfalse {citerequest}\boolfalse {citetracker}\boolfalse {pagetracker}\boolfalse {backtracker}\relax }
\@writefile{lof}{\boolfalse {citerequest}\boolfalse {citetracker}\boolfalse {pagetracker}\boolfalse {backtracker}\relax }
\@writefile{lot}{\boolfalse {citerequest}\boolfalse {citetracker}\boolfalse {pagetracker}\boolfalse {backtracker}\relax }
\babel@aux{english}{}
\BKM@entry{id=1,dest={73656374696F6E2E31},srcline={85}}{53686F7274207465726D20666F72656361737473}
\abx@aux@cite{Hub}
\abx@aux@segm{0}{0}{Hub}
\BKM@entry{id=2,dest={73756273656374696F6E2E312E31},srcline={89}}{42494F434F4D53432D476F6D706572747A}
\abx@aux@cite{catala}
\abx@aux@segm{0}{0}{catala}
\BKM@entry{id=3,dest={73756273656374696F6E2E312E32},srcline={97}}{444D5350472D4261796573}
\abx@aux@cite{Priesemann}
\abx@aux@segm{0}{0}{Priesemann}
\BKM@entry{id=4,dest={73756273756273656374696F6E2E312E322E31},srcline={101}}{5349522077697468207265706F7274696E672064656C6179}
\BKM@entry{id=5,dest={73756273756273656374696F6E2E312E322E32},srcline={127}}{506172616D6574657220657374696D6174696F6E}
\@writefile{toc}{\defcounter {refsection}{0}\relax }\@writefile{toc}{\contentsline {section}{\numberline {1}Short term forecasts}{2}{section.1}\protected@file@percent }
\@writefile{toc}{\defcounter {refsection}{0}\relax }\@writefile{toc}{\contentsline {subsection}{\numberline {1.1}BIOCOMSC-Gompertz}{2}{subsection.1.1}\protected@file@percent }
\@writefile{toc}{\defcounter {refsection}{0}\relax }\@writefile{toc}{\contentsline {subsection}{\numberline {1.2}DMSPG-Bayes}{2}{subsection.1.2}\protected@file@percent }
\@writefile{toc}{\defcounter {refsection}{0}\relax }\@writefile{toc}{\contentsline {subsubsection}{\numberline {1.2.1}SIR with reporting delay}{2}{subsubsection.1.2.1}\protected@file@percent }
\BKM@entry{id=6,dest={73756273756273656374696F6E2E312E322E33},srcline={161}}{4C6F6E6765722070726564696374696F6E20696E636C7564696E6720706F6C696379206368616E676573}
\BKM@entry{id=7,dest={73756273656374696F6E2E312E33},srcline={165}}{466F72736368756E67737A656E7472756D204A5C3337346C69636820616E64204672616E6B6675727420496E7374697475746520666F7220416476616E6365642053747564696573}
\abx@aux@cite{Jülich}
\abx@aux@segm{0}{0}{Jülich}
\@writefile{toc}{\defcounter {refsection}{0}\relax }\@writefile{toc}{\contentsline {subsubsection}{\numberline {1.2.2}Parameter estimation}{3}{subsubsection.1.2.2}\protected@file@percent }
\@writefile{toc}{\defcounter {refsection}{0}\relax }\@writefile{toc}{\contentsline {subsubsection}{\numberline {1.2.3}Longer prediction including policy changes}{3}{subsubsection.1.2.3}\protected@file@percent }
\BKM@entry{id=8,dest={73756273656374696F6E2E312E34},srcline={191}}{53496B4A2D6D6F64656C}
\abx@aux@cite{California}
\abx@aux@segm{0}{0}{California}
\BKM@entry{id=9,dest={73756273756273656374696F6E2E312E342E31},srcline={194}}{426173656C696E6520617373756D7074696F6E73}
\@writefile{toc}{\defcounter {refsection}{0}\relax }\@writefile{toc}{\contentsline {subsection}{\numberline {1.3}Forschungszentrum Jülich and Frankfurt Institute for Advanced Studies}{4}{subsection.1.3}\protected@file@percent }
\@writefile{toc}{\defcounter {refsection}{0}\relax }\@writefile{toc}{\contentsline {subsection}{\numberline {1.4}SIkJ$\alpha $-model}{4}{subsection.1.4}\protected@file@percent }
\@writefile{toc}{\defcounter {refsection}{0}\relax }\@writefile{toc}{\contentsline {subsubsection}{\numberline {1.4.1}Baseline assumptions}{4}{subsubsection.1.4.1}\protected@file@percent }
\newlabel{eq:succeptibles}{{1}{4}{Baseline assumptions}{equation.1.1}{}}
\newlabel{eq:succeptibles@cref}{{[equation][1][]1}{[1][4][]4}}
\BKM@entry{id=10,dest={73756273756273656374696F6E2E312E342E32},srcline={221}}{506172616D6574657220457374696D6174696F6E205C2873696D706C6966696564206D6F64656C5C29}
\newlabel{eq:reported}{{2}{5}{Baseline assumptions}{equation.1.2}{}}
\newlabel{eq:reported@cref}{{[equation][2][]2}{[1][4][]5}}
\newlabel{eq:NewInfections}{{3}{5}{Baseline assumptions}{equation.1.3}{}}
\newlabel{eq:NewInfections@cref}{{[equation][3][]3}{[1][5][]5}}
\newlabel{deaths}{{5}{5}{Baseline assumptions}{equation.1.5}{}}
\newlabel{deaths@cref}{{[equation][5][]5}{[1][5][]5}}
\newlabel{eq:DeathsSimplified}{{6}{5}{Baseline assumptions}{equation.1.6}{}}
\newlabel{eq:DeathsSimplified@cref}{{[equation][6][]6}{[1][5][]5}}
\@writefile{toc}{\defcounter {refsection}{0}\relax }\@writefile{toc}{\contentsline {subsubsection}{\numberline {1.4.2}Parameter Estimation (simplified model)}{5}{subsubsection.1.4.2}\protected@file@percent }
\abx@aux@refcontextdefaultsdone
\abx@aux@defaultrefcontext{0}{Jülich}{ynt/global//global/global}
\abx@aux@defaultrefcontext{0}{Priesemann}{ynt/global//global/global}
\abx@aux@defaultrefcontext{0}{California}{ynt/global//global/global}
\abx@aux@defaultrefcontext{0}{catala}{ynt/global//global/global}
\abx@aux@defaultrefcontext{0}{Hub}{ynt/global//global/global}
\global\@namedef{scr@dte@section@lastmaxnumwidth}{10.84041pt}
\global\@namedef{scr@dte@subsection@lastmaxnumwidth}{18.37155pt}
\global\@namedef{scr@dte@subsubsection@lastmaxnumwidth}{26.88818pt}
